singleSeven/simulation/qsim/svSegment.msim.vcd
$comment
	File created using the following command:
		vcd file svSegment.msim.vcd -direction
$end
$date
	Tue Oct 24 19:54:21 2017
$end
$version
	ModelSim Version 10.1d
$end
$timescale
	1ps
$end
$scope module counter_debounce_vlg_vec_tst $end
$var reg 1 ! clk $end
$var reg 1 " CLR $end
$var reg 1 # In_put $end
$var wire 1 $ Carry $end
$var wire 1 % Carry2 [6] $end
$var wire 1 & Carry2 [5] $end
$var wire 1 ' Carry2 [4] $end
$var wire 1 ( Carry2 [3] $end
$var wire 1 ) Carry2 [2] $end
$var wire 1 * Carry2 [1] $end
$var wire 1 + Carry2 [0] $end
$var wire 1 , output2 [6] $end
$var wire 1 - output2 [5] $end
$var wire 1 . output2 [4] $end
$var wire 1 / output2 [3] $end
$var wire 1 0 output2 [2] $end
$var wire 1 1 output2 [1] $end
$var wire 1 2 output2 [0] $end
$var wire 1 3 sampler $end
$scope module i1 $end
$var wire 1 4 gnd $end
$var wire 1 5 vcc $end
$var wire 1 6 unknown $end
$var tri1 1 7 devclrn $end
$var tri1 1 8 devpor $end
$var tri1 1 9 devoe $end
$var wire 1 : Carry~output_o $end
$var wire 1 ; Carry2[0]~output_o $end
$var wire 1 < Carry2[1]~output_o $end
$var wire 1 = Carry2[2]~output_o $end
$var wire 1 > Carry2[3]~output_o $end
$var wire 1 ? Carry2[4]~output_o $end
$var wire 1 @ Carry2[5]~output_o $end
$var wire 1 A Carry2[6]~output_o $end
$var wire 1 B output2[0]~output_o $end
$var wire 1 C output2[1]~output_o $end
$var wire 1 D output2[2]~output_o $end
$var wire 1 E output2[3]~output_o $end
$var wire 1 F output2[4]~output_o $end
$var wire 1 G output2[5]~output_o $end
$var wire 1 H output2[6]~output_o $end
$var wire 1 I clk~input_o $end
$var wire 1 J clk~inputclkctrl_outclk $end
$var wire 1 K CLR~input_o $end
$var wire 1 L U2|inff[0]~feeder_combout $end
$var wire 1 M U2|inff[1]~feeder_combout $end
$var wire 1 N U2|count[0]~16_combout $end
$var wire 1 O U2|process_0~0_combout $end
$var wire 1 P U2|count[0]~17 $end
$var wire 1 Q U2|count[1]~18_combout $end
$var wire 1 R U2|count[1]~19 $end
$var wire 1 S U2|count[2]~20_combout $end
$var wire 1 T U2|count[2]~21 $end
$var wire 1 U U2|count[3]~22_combout $end
$var wire 1 V U2|count[3]~23 $end
$var wire 1 W U2|count[4]~24_combout $end
$var wire 1 X U2|count[4]~25 $end
$var wire 1 Y U2|count[5]~26_combout $end
$var wire 1 Z U2|count[5]~27 $end
$var wire 1 [ U2|count[6]~28_combout $end
$var wire 1 \ U2|count[6]~29 $end
$var wire 1 ] U2|count[7]~30_combout $end
$var wire 1 ^ U2|count[7]~31 $end
$var wire 1 _ U2|count[8]~32_combout $end
$var wire 1 ` U2|count[8]~33 $end
$var wire 1 a U2|count[9]~34_combout $end
$var wire 1 b U2|count[9]~35 $end
$var wire 1 c U2|count[10]~36_combout $end
$var wire 1 d U2|count[10]~37 $end
$var wire 1 e U2|count[11]~38_combout $end
$var wire 1 f U2|count[11]~39 $end
$var wire 1 g U2|count[12]~40_combout $end
$var wire 1 h U2|count[12]~41 $end
$var wire 1 i U2|count[13]~42_combout $end
$var wire 1 j U2|count[13]~43 $end
$var wire 1 k U2|count[14]~44_combout $end
$var wire 1 l U2|count[14]~45 $end
$var wire 1 m U2|count[15]~46_combout $end
$var wire 1 n U2|keepResult~0_combout $end
$var wire 1 o U2|LessThan0~0_combout $end
$var wire 1 p U2|keepResult~1_combout $end
$var wire 1 q U2|keepResult~2_combout $end
$var wire 1 r U2|keepResult~3_combout $end
$var wire 1 s U2|keepResult~q $end
$var wire 1 t In_put~input_o $end
$var wire 1 u U1|inff[0]~feeder_combout $end
$var wire 1 v U1|inff[1]~feeder_combout $end
$var wire 1 w U1|count[0]~16_combout $end
$var wire 1 x U1|process_0~0_combout $end
$var wire 1 y U1|count[0]~17 $end
$var wire 1 z U1|count[1]~18_combout $end
$var wire 1 { U1|count[1]~19 $end
$var wire 1 | U1|count[2]~20_combout $end
$var wire 1 } U1|count[2]~21 $end
$var wire 1 ~ U1|count[3]~22_combout $end
$var wire 1 !! U1|count[3]~23 $end
$var wire 1 "! U1|count[4]~24_combout $end
$var wire 1 #! U1|count[4]~25 $end
$var wire 1 $! U1|count[5]~26_combout $end
$var wire 1 %! U1|count[5]~27 $end
$var wire 1 &! U1|count[6]~28_combout $end
$var wire 1 '! U1|count[6]~29 $end
$var wire 1 (! U1|count[7]~30_combout $end
$var wire 1 )! U1|count[7]~31 $end
$var wire 1 *! U1|count[8]~32_combout $end
$var wire 1 +! U1|count[8]~33 $end
$var wire 1 ,! U1|count[9]~34_combout $end
$var wire 1 -! U1|count[9]~35 $end
$var wire 1 .! U1|count[10]~36_combout $end
$var wire 1 /! U1|count[10]~37 $end
$var wire 1 0! U1|count[11]~38_combout $end
$var wire 1 1! U1|count[11]~39 $end
$var wire 1 2! U1|count[12]~40_combout $end
$var wire 1 3! U1|count[12]~41 $end
$var wire 1 4! U1|count[13]~42_combout $end
$var wire 1 5! U1|count[13]~43 $end
$var wire 1 6! U1|count[14]~44_combout $end
$var wire 1 7! U1|count[14]~45 $end
$var wire 1 8! U1|count[15]~46_combout $end
$var wire 1 9! U1|keepResult~0_combout $end
$var wire 1 :! U1|LessThan0~0_combout $end
$var wire 1 ;! U1|keepResult~1_combout $end
$var wire 1 <! U1|keepResult~2_combout $end
$var wire 1 =! U1|keepResult~3_combout $end
$var wire 1 >! U1|keepResult~feeder_combout $end
$var wire 1 ?! U1|keepResult~q $end
$var wire 1 @! U1|keepResult~clkctrl_outclk $end
$var wire 1 A! U0|tmp[0]~4_combout $end
$var wire 1 B! U0|tmp[3]~1_combout $end
$var wire 1 C! U0|tmp[1]~2_combout $end
$var wire 1 D! U0|tmp[2]~3_combout $end
$var wire 1 E! U0|tmp[3]~0_combout $end
$var wire 1 F! U0|C~5_combout $end
$var wire 1 G! U0|C~6_combout $end
$var wire 1 H! U0|C~1_combout $end
$var wire 1 I! U0|C~0_combout $end
$var wire 1 J! U0|C~_emulated_q $end
$var wire 1 K! U0|C~2_combout $end
$var wire 1 L! U0|C~6clkctrl_outclk $end
$var wire 1 M! U0|F[0]~0_combout $end
$var wire 1 N! U0|Add0~0_combout $end
$var wire 1 O! U0|Add0~1_combout $end
$var wire 1 P! U0|Add0~2_combout $end
$var wire 1 Q! U3|Mux6~0_combout $end
$var wire 1 R! U3|Mux5~0_combout $end
$var wire 1 S! U3|Mux4~0_combout $end
$var wire 1 T! U3|Mux3~0_combout $end
$var wire 1 U! U3|Mux2~0_combout $end
$var wire 1 V! U3|Mux1~0_combout $end
$var wire 1 W! U3|Mux0~0_combout $end
$var wire 1 X! U0|tmp [3] $end
$var wire 1 Y! U0|tmp [2] $end
$var wire 1 Z! U0|tmp [1] $end
$var wire 1 [! U0|tmp [0] $end
$var wire 1 \! U1|inff [1] $end
$var wire 1 ]! U1|inff [0] $end
$var wire 1 ^! U2|count [15] $end
$var wire 1 _! U2|count [14] $end
$var wire 1 `! U2|count [13] $end
$var wire 1 a! U2|count [12] $end
$var wire 1 b! U2|count [11] $end
$var wire 1 c! U2|count [10] $end
$var wire 1 d! U2|count [9] $end
$var wire 1 e! U2|count [8] $end
$var wire 1 f! U2|count [7] $end
$var wire 1 g! U2|count [6] $end
$var wire 1 h! U2|count [5] $end
$var wire 1 i! U2|count [4] $end
$var wire 1 j! U2|count [3] $end
$var wire 1 k! U2|count [2] $end
$var wire 1 l! U2|count [1] $end
$var wire 1 m! U2|count [0] $end
$var wire 1 n! U1|count [15] $end
$var wire 1 o! U1|count [14] $end
$var wire 1 p! U1|count [13] $end
$var wire 1 q! U1|count [12] $end
$var wire 1 r! U1|count [11] $end
$var wire 1 s! U1|count [10] $end
$var wire 1 t! U1|count [9] $end
$var wire 1 u! U1|count [8] $end
$var wire 1 v! U1|count [7] $end
$var wire 1 w! U1|count [6] $end
$var wire 1 x! U1|count [5] $end
$var wire 1 y! U1|count [4] $end
$var wire 1 z! U1|count [3] $end
$var wire 1 {! U1|count [2] $end
$var wire 1 |! U1|count [1] $end
$var wire 1 }! U1|count [0] $end
$var wire 1 ~! U0|F [3] $end
$var wire 1 !" U0|F [2] $end
$var wire 1 "" U0|F [1] $end
$var wire 1 #" U0|F [0] $end
$var wire 1 $" U2|inff [1] $end
$var wire 1 %" U2|inff [0] $end
$upscope $end
$upscope $end
$enddefinitions $end
#0
$dumpvars
0!
1"
0#
0e!
0d!
0c!
0b!
0a!
0`!
0_!
0^!
0}!
0|!
0{!
0z!
0y!
0x!
0w!
0v!
0u!
0t!
0s!
0r!
0q!
0p!
0o!
0n!
z#"
x""
x!"
x~!
0%"
0$"
x$
0+
0*
0)
0(
0'
0&
1%
x2
x1
x0
x/
x.
x-
x,
x3
04
15
x6
17
18
19
x:
0;
0<
0=
0>
0?
0@
1A
xB
xC
xD
xE
xF
xG
xH
0I
0J
1K
1L
0M
1N
0O
0P
0Q
1R
0S
0T
0U
1V
0W
0X
0Y
1Z
0[
0\
0]
1^
0_
0`
0a
1b
0c
0d
0e
1f
0g
0h
0i
1j
0k
0l
0m
0n
1o
1p
1q
0r
0s
0t
0u
0v
1w
0x
0y
0z
1{
0|
0}
0~
1!!
0"!
0#!
0$!
1%!
0&!
0'!
0(!
1)!
0*!
0+!
0,!
1-!
0.!
0/!
00!
11!
02!
03!
04!
15!
06!
07!
08!
09!
1:!
1;!
1<!
0=!
0>!
0?!
0@!
1A!
0B!
0C!
0D!
0E!
0F!
0G!
xH!
0I!
0J!
xK!
0L!
xM!
xN!
xO!
xP!
xQ!
xR!
xS!
xT!
xU!
xV!
xW!
0[!
0Z!
0Y!
0X!
0]!
0\!
0m!
0l!
0k!
0j!
0i!
0h!
0g!
0f!
$end
#5000
1!
1I
1J
03
1}!
1m!
1%"
1y
0w
1P
0N
1O
1M
1z
1Q
#10000
0!
0I
0J
13
#15000
1!
1I
1J
03
1|!
0}!
0m!
1$"
0{
0z
0y
1w
0P
1N
0O
1|
1{
1z
0Q
0|
#20000
0!
0I
0J
13
#25000
1!
1I
1J
03
1}!
1m!
1y
0w
1P
0N
0{
0z
1Q
1|
#30000
0!
0I
0J
13
#35000
1!
1I
1J
03
1{!
0|!
0}!
1l!
0m!
1}
0|
1{
1z
0y
1w
0R
0Q
0P
1N
1~
0}
1|
0z
1S
1R
1Q
0~
0S
#40000
0!
0I
0J
13
#45000
1!
1I
1J
03
1}!
1m!
1y
0w
1P
0N
1z
0R
0Q
1S
#50000
0!
0I
0J
13
#55000
1!
1I
1J
03
1|!
0}!
1k!
0l!
0m!
0{
0z
0y
1w
1T
0S
1R
1Q
0P
1N
1}
0|
1{
1z
1U
0T
1S
0Q
1~
0}
1|
0U
0~
#60000
0!
0I
0J
13
#65000
1!
1I
1J
03
1}!
1m!
1y
0w
1P
0N
0{
0z
1Q
1}
0|
1~
#70000
0!
0I
0J
13
#75000
1!
1I
1J
03
1z!
0{!
0|!
0}!
1l!
0m!
0!!
0~
0}
1|
1{
1z
0y
1w
0R
0Q
0P
1N
1"!
1!!
1~
0|
0z
1T
0S
1R
1Q
0"!
1U
0T
1S
0U
#80000
0!
0I
0J
13
#85000
1!
1I
1J
03
1}!
1m!
1y
0w
1P
0N
1z
0R
0Q
1T
0S
1U
#90000
0!
0I
0J
13
#95000
1!
1I
1J
03
1|!
0}!
1j!
0k!
0l!
0m!
0{
0z
0y
1w
0V
0U
0T
1S
1R
1Q
0P
1N
1|
1{
1z
1W
1V
1U
0S
0Q
0|
0W
#100000
0!
0I
0J
13
#105000
1!
1I
1J
03
1}!
1m!
1y
0w
1P
0N
0{
0z
1Q
1|
#110000
0!
0I
0J
13
#115000
1!
1I
1J
03
1{!
0|!
0}!
1l!
0m!
1}
0|
1{
1z
0y
1w
0R
0Q
0P
1N
0!!
0~
0}
1|
0z
1S
1R
1Q
1"!
1!!
1~
0S
0"!
#120000
0!
0I
0J
13
#125000
1!
1I
1J
03
1}!
1m!
1y
0w
1P
0N
1z
0R
0Q
1S
#130000
0!
0I
0J
13
#135000
1!
1I
1J
03
1|!
0}!
1k!
0l!
0m!
0{
0z
0y
1w
1T
0S
1R
1Q
0P
1N
1}
0|
1{
1z
0V
0U
0T
1S
0Q
0!!
0~
0}
1|
1W
1V
1U
1"!
1!!
1~
0W
0"!
#140000
0!
0I
0J
13
#145000
1!
1I
1J
03
1}!
1m!
1y
0w
1P
0N
0{
0z
1Q
1}
0|
0!!
0~
1"!
#150000
0!
0I
0J
13
#155000
1!
1I
1J
03
1y!
0z!
0{!
0|!
0}!
1l!
0m!
1#!
0"!
1!!
1~
0}
1|
1{
1z
0y
1w
0R
0Q
0P
1N
1$!
0#!
1"!
0~
0|
0z
1T
0S
1R
1Q
0$!
0V
0U
0T
1S
1W
1V
1U
0W
#160000
0!
0I
0J
13
#165000
1!
1I
1J
03
1}!
1m!
1y
0w
1P
0N
1z
0R
0Q
1T
0S
0V
0U
1W
#170000
0!
0I
0J
13
#175000
1!
1I
1J
03
1|!
0}!
1i!
0j!
0k!
0l!
0m!
0{
0z
0y
1w
1X
0W
1V
1U
0T
1S
1R
1Q
0P
1N
1|
1{
1z
1Y
0X
1W
0U
0S
0Q
0|
0Y
#180000
0!
0I
0J
13
#185000
1!
1I
1J
03
1}!
1m!
1y
0w
1P
0N
0{
0z
1Q
1|
#190000
0!
0I
0J
13
#195000
1!
1I
1J
03
1{!
0|!
0}!
1l!
0m!
1}
0|
1{
1z
0y
1w
0R
0Q
0P
1N
1~
0}
1|
0z
1S
1R
1Q
0~
0S
#200000
0!
0I
0J
13
#205000
1!
1I
1J
03
1}!
1m!
1y
0w
1P
0N
1z
0R
0Q
1S
#210000
0!
0I
0J
13
#215000
1!
1I
1J
03
1|!
0}!
1k!
0l!
0m!
0{
0z
0y
1w
1T
0S
1R
1Q
0P
1N
1}
0|
1{
1z
1U
0T
1S
0Q
1~
0}
1|
0U
0~
#220000
0!
0I
0J
13
#225000
1!
1I
1J
03
1}!
1m!
1y
0w
1P
0N
0{
0z
1Q
1}
0|
1~
#230000
0!
0I
0J
13
#235000
1!
1I
1J
03
1z!
0{!
0|!
0}!
1l!
0m!
0!!
0~
0}
1|
1{
1z
0y
1w
0R
0Q
0P
1N
1#!
0"!
1!!
1~
0|
0z
1T
0S
1R
1Q
1$!
0#!
1"!
1U
0T
1S
0$!
0U
#240000
0!
0I
0J
13
#245000
1!
1I
1J
03
1}!
1m!
1y
0w
1P
0N
1z
0R
0Q
1T
0S
1U
#250000
0!
0I
0J
13
#255000
1!
1I
1J
03
1|!
0}!
1j!
0k!
0l!
0m!
0{
0z
0y
1w
0V
0U
0T
1S
1R
1Q
0P
1N
1|
1{
1z
1X
0W
1V
1U
0S
0Q
0|
1Y
0X
1W
0Y
#260000
0!
0I
0J
13
#265000
1!
1I
1J
03
1}!
1m!
1y
0w
1P
0N
0{
0z
1Q
1|
#270000
0!
0I
0J
13
#275000
1!
1I
1J
03
1{!
0|!
0}!
1l!
0m!
1}
0|
1{
1z
0y
1w
0R
0Q
0P
1N
0!!
0~
0}
1|
0z
1S
1R
1Q
1#!
0"!
1!!
1~
0S
1$!
0#!
1"!
0$!
#280000
0!
0I
0J
13
#285000
1!
1I
1J
03
1}!
1m!
1y
0w
1P
0N
1z
0R
0Q
1S
#290000
0!
0I
0J
13
#295000
1!
1I
1J
03
1|!
0}!
1k!
0l!
0m!
0{
0z
0y
1w
1T
0S
1R
1Q
0P
1N
1}
0|
1{
1z
0V
0U
0T
1S
0Q
0!!
0~
0}
1|
1X
0W
1V
1U
1#!
0"!
1!!
1~
1Y
0X
1W
1$!
0#!
1"!
0Y
0$!
#300000
0!
0I
0J
13
#305000
1!
1I
1J
03
1}!
1m!
1y
0w
1P
0N
0{
0z
1Q
1}
0|
0!!
0~
1#!
0"!
1$!
#310000
0!
0I
0J
13
#315000
1!
1I
1J
03
1x!
0y!
0z!
0{!
0|!
0}!
1l!
0m!
0%!
0$!
0#!
1"!
1!!
1~
0}
1|
1{
1z
0y
1w
0R
0Q
0P
1N
1&!
1%!
1$!
0"!
0~
0|
0z
1T
0S
1R
1Q
0&!
0V
0U
0T
1S
1X
0W
1V
1U
1Y
0X
1W
0Y
#320000
0!
0I
0J
13
#325000
1!
1I
1J
03
1}!
1m!
1y
0w
1P
0N
1z
0R
0Q
1T
0S
0V
0U
1X
0W
1Y
#330000
0!
0I
0J
13
#335000
1!
1I
1J
03
1|!
0}!
1h!
0i!
0j!
0k!
0l!
0m!
0{
0z
0y
1w
0Z
0Y
0X
1W
1V
1U
0T
1S
1R
1Q
0P
1N
1|
1{
1z
1[
1Z
1Y
0W
0U
0S
0Q
0|
0[
#340000
0!
0I
0J
13
#345000
1!
1I
1J
03
1}!
1m!
1y
0w
1P
0N
0{
0z
1Q
1|
#350000
0!
0I
0J
13
#355000
1!
1I
1J
03
1{!
0|!
0}!
1l!
0m!
1}
0|
1{
1z
0y
1w
0R
0Q
0P
1N
1~
0}
1|
0z
1S
1R
1Q
0~
0S
#360000
0!
0I
0J
13
#365000
1!
1I
1J
03
1}!
1m!
1y
0w
1P
0N
1z
0R
0Q
1S
#370000
0!
0I
0J
13
#375000
1!
1I
1J
03
1|!
0}!
1k!
0l!
0m!
0{
0z
0y
1w
1T
0S
1R
1Q
0P
1N
1}
0|
1{
1z
1U
0T
1S
0Q
1~
0}
1|
0U
0~
#380000
0!
0I
0J
13
#385000
1!
1I
1J
03
1}!
1m!
1y
0w
1P
0N
0{
0z
1Q
1}
0|
1~
#390000
0!
0I
0J
13
#395000
1!
1I
1J
03
1z!
0{!
0|!
0}!
1l!
0m!
0!!
0~
0}
1|
1{
1z
0y
1w
0R
0Q
0P
1N
1"!
1!!
1~
0|
0z
1T
0S
1R
1Q
0"!
1U
0T
1S
0U
#400000
0!
0I
0J
13
#405000
1!
1I
1J
03
1}!
1m!
1y
0w
1P
0N
1z
0R
0Q
1T
0S
1U
#410000
0!
0I
0J
13
#415000
1!
1I
1J
03
1|!
0}!
1j!
0k!
0l!
0m!
0{
0z
0y
1w
0V
0U
0T
1S
1R
1Q
0P
1N
1|
1{
1z
1W
1V
1U
0S
0Q
0|
0W
#420000
0!
0I
0J
13
#425000
1!
1I
1J
03
1}!
1m!
1y
0w
1P
0N
0{
0z
1Q
1|
#430000
0!
0I
0J
13
#435000
1!
1I
1J
03
1{!
0|!
0}!
1l!
0m!
1}
0|
1{
1z
0y
1w
0R
0Q
0P
1N
0!!
0~
0}
1|
0z
1S
1R
1Q
1"!
1!!
1~
0S
0"!
#440000
0!
0I
0J
13
#445000
1!
1I
1J
03
1}!
1m!
1y
0w
1P
0N
1z
0R
0Q
1S
#450000
0!
0I
0J
13
#455000
1!
1I
1J
03
1|!
0}!
1k!
0l!
0m!
0{
0z
0y
1w
1T
0S
1R
1Q
0P
1N
1}
0|
1{
1z
0V
0U
0T
1S
0Q
0!!
0~
0}
1|
1W
1V
1U
1"!
1!!
1~
0W
0"!
#460000
0!
0I
0J
13
#465000
1!
1I
1J
03
1}!
1m!
1y
0w
1P
0N
0{
0z
1Q
1}
0|
0!!
0~
1"!
#470000
0!
0I
0J
13
#475000
1!
1I
1J
03
1y!
0z!
0{!
0|!
0}!
1l!
0m!
1#!
0"!
1!!
1~
0}
1|
1{
1z
0y
1w
0R
0Q
0P
1N
0%!
0$!
0#!
1"!
0~
0|
0z
1T
0S
1R
1Q
1&!
1%!
1$!
0V
0U
0T
1S
0&!
1W
1V
1U
0W
#480000
0!
0I
0J
13
#485000
1!
1I
1J
03
1}!
1m!
1y
0w
1P
0N
1z
0R
0Q
1T
0S
0V
0U
1W
#490000
0!
0I
0J
13
#495000
1!
1I
1J
03
1|!
0}!
1i!
0j!
0k!
0l!
0m!
0{
0z
0y
1w
1X
0W
1V
1U
0T
1S
1R
1Q
0P
1N
1|
1{
1z
0Z
0Y
0X
1W
0U
0S
0Q
0|
1[
1Z
1Y
0[
#500000
0!
0I
0J
13
#505000
1!
1I
1J
03
1}!
1m!
1y
0w
1P
0N
0{
0z
1Q
1|
#510000
0!
0I
0J
13
#515000
1!
1I
1J
03
1{!
0|!
0}!
1l!
0m!
1}
0|
1{
1z
0y
1w
0R
0Q
0P
1N
1~
0}
1|
0z
1S
1R
1Q
0~
0S
#520000
0!
0I
0J
13
#525000
1!
1I
1J
03
1}!
1m!
1y
0w
1P
0N
1z
0R
0Q
1S
#530000
0!
0I
0J
13
#535000
1!
1I
1J
03
1|!
0}!
1k!
0l!
0m!
0{
0z
0y
1w
1T
0S
1R
1Q
0P
1N
1}
0|
1{
1z
1U
0T
1S
0Q
1~
0}
1|
0U
0~
#540000
0!
0I
0J
13
#545000
1!
1I
1J
03
1}!
1m!
1y
0w
1P
0N
0{
0z
1Q
1}
0|
1~
#550000
0!
0I
0J
13
#555000
1!
1I
1J
03
1z!
0{!
0|!
0}!
1l!
0m!
0!!
0~
0}
1|
1{
1z
0y
1w
0R
0Q
0P
1N
1#!
0"!
1!!
1~
0|
0z
1T
0S
1R
1Q
0%!
0$!
0#!
1"!
1U
0T
1S
1&!
1%!
1$!
0U
0&!
#560000
0!
0I
0J
13
#565000
1!
1I
1J
03
1}!
1m!
1y
0w
1P
0N
1z
0R
0Q
1T
0S
1U
#570000
0!
0I
0J
13
#575000
1!
1I
1J
03
1|!
0}!
1j!
0k!
0l!
0m!
0{
0z
0y
1w
0V
0U
0T
1S
1R
1Q
0P
1N
1|
1{
1z
1X
0W
1V
1U
0S
0Q
0|
0Z
0Y
0X
1W
1[
1Z
1Y
0[
#580000
0!
0I
0J
13
#585000
1!
1I
1J
03
1}!
1m!
1y
0w
1P
0N
0{
0z
1Q
1|
#590000
0!
0I
0J
13
#595000
1!
1I
1J
03
1{!
0|!
0}!
1l!
0m!
1}
0|
1{
1z
0y
1w
0R
0Q
0P
1N
0!!
0~
0}
1|
0z
1S
1R
1Q
1#!
0"!
1!!
1~
0S
0%!
0$!
0#!
1"!
1&!
1%!
1$!
0&!
#600000
0!
0I
0J
13
#605000
1!
1I
1J
03
1}!
1m!
1y
0w
1P
0N
1z
0R
0Q
1S
#610000
0!
0I
0J
13
#615000
1!
1I
1J
03
1|!
0}!
1k!
0l!
0m!
0{
0z
0y
1w
1T
0S
1R
1Q
0P
1N
1}
0|
1{
1z
0V
0U
0T
1S
0Q
0!!
0~
0}
1|
1X
0W
1V
1U
1#!
0"!
1!!
1~
0Z
0Y
0X
1W
0%!
0$!
0#!
1"!
1[
1Z
1Y
1&!
1%!
1$!
0[
0&!
#620000
0!
0I
0J
13
#625000
1!
1I
1J
03
1}!
1m!
1y
0w
1P
0N
0{
0z
1Q
1}
0|
0!!
0~
1#!
0"!
0%!
0$!
1&!
#630000
0!
0I
0J
13
#635000
1!
1I
1J
03
1w!
0x!
0y!
0z!
0{!
0|!
0}!
1l!
0m!
1'!
0&!
1%!
1$!
0#!
1"!
1!!
1~
0}
1|
1{
1z
0y
1w
0R
0Q
0P
1N
1(!
0'!
1&!
0$!
0"!
0~
0|
0z
1T
0S
1R
1Q
0(!
0V
0U
0T
1S
1X
0W
1V
1U
0Z
0Y
0X
1W
1[
1Z
1Y
0[
#640000
0!
0I
0J
13
#645000
1!
1I
1J
03
1}!
1m!
1y
0w
1P
0N
1z
0R
0Q
1T
0S
0V
0U
1X
0W
0Z
0Y
1[
#650000
0!
0I
0J
13
#655000
1!
1I
1J
03
1|!
0}!
1g!
0h!
0i!
0j!
0k!
0l!
0m!
0{
0z
0y
1w
1\
0[
1Z
1Y
0X
1W
1V
1U
0T
1S
1R
1Q
0P
1N
1|
1{
1z
1]
0\
1[
0Y
0W
0U
0S
0Q
0|
0]
#660000
0!
0I
0J
13
#665000
1!
1I
1J
03
1}!
1m!
1y
0w
1P
0N
0{
0z
1Q
1|
#670000
0!
0I
0J
13
#675000
1!
1I
1J
03
1{!
0|!
0}!
1l!
0m!
1}
0|
1{
1z
0y
1w
0R
0Q
0P
1N
1~
0}
1|
0z
1S
1R
1Q
0~
0S
#680000
0!
0I
0J
13
#685000
1!
1I
1J
03
1}!
1m!
1y
0w
1P
0N
1z
0R
0Q
1S
#690000
0!
0I
0J
13
#695000
1!
1I
1J
03
1|!
0}!
1k!
0l!
0m!
0{
0z
0y
1w
1T
0S
1R
1Q
0P
1N
1}
0|
1{
1z
1U
0T
1S
0Q
1~
0}
1|
0U
0~
#700000
0!
0I
0J
13
#705000
1!
1I
1J
03
1}!
1m!
1y
0w
1P
0N
0{
0z
1Q
1}
0|
1~
#710000
0!
0I
0J
13
#715000
1!
1I
1J
03
1z!
0{!
0|!
0}!
1l!
0m!
0!!
0~
0}
1|
1{
1z
0y
1w
0R
0Q
0P
1N
1"!
1!!
1~
0|
0z
1T
0S
1R
1Q
0"!
1U
0T
1S
0U
#720000
0!
0I
0J
13
#725000
1!
1I
1J
03
1}!
1m!
1y
0w
1P
0N
1z
0R
0Q
1T
0S
1U
#730000
0!
0I
0J
13
#735000
1!
1I
1J
03
1|!
0}!
1j!
0k!
0l!
0m!
0{
0z
0y
1w
0V
0U
0T
1S
1R
1Q
0P
1N
1|
1{
1z
1W
1V
1U
0S
0Q
0|
0W
#740000
0!
0I
0J
13
#745000
1!
1I
1J
03
1}!
1m!
1y
0w
1P
0N
0{
0z
1Q
1|
#750000
0!
0I
0J
13
#755000
1!
1I
1J
03
1{!
0|!
0}!
1l!
0m!
1}
0|
1{
1z
0y
1w
0R
0Q
0P
1N
0!!
0~
0}
1|
0z
1S
1R
1Q
1"!
1!!
1~
0S
0"!
#760000
0!
0I
0J
13
#765000
1!
1I
1J
03
1}!
1m!
1y
0w
1P
0N
1z
0R
0Q
1S
#770000
0!
0I
0J
13
#775000
1!
1I
1J
03
1|!
0}!
1k!
0l!
0m!
0{
0z
0y
1w
1T
0S
1R
1Q
0P
1N
1}
0|
1{
1z
0V
0U
0T
1S
0Q
0!!
0~
0}
1|
1W
1V
1U
1"!
1!!
1~
0W
0"!
#780000
0!
0I
0J
13
#785000
1!
1I
1J
03
1}!
1m!
1y
0w
1P
0N
0{
0z
1Q
1}
0|
0!!
0~
1"!
#790000
0!
0I
0J
13
#795000
1!
1I
1J
03
1y!
0z!
0{!
0|!
0}!
1l!
0m!
19!
1#!
0"!
1!!
1~
0}
1|
1{
1z
0y
1w
0R
0Q
0P
1N
1$!
0#!
1"!
0~
0|
0z
1T
0S
1R
1Q
0$!
0V
0U
0T
1S
1W
1V
1U
0W
#800000
0!
0I
0J
13
#805000
1!
1I
1J
03
1}!
1m!
1y
0w
1P
0N
1z
0R
0Q
1T
0S
0V
0U
1W
#810000
0!
0I
0J
13
#815000
1!
1I
1J
03
1|!
0}!
1i!
0j!
0k!
0l!
0m!
0{
0z
0y
1w
1n
1X
0W
1V
1U
0T
1S
1R
1Q
0P
1N
1|
1{
1z
1Y
0X
1W
0U
0S
0Q
0|
0Y
#820000
0!
0I
0J
13
#825000
1!
1I
1J
03
1}!
1m!
1y
0w
1P
0N
0{
0z
1Q
1|
#830000
0!
0I
0J
13
#835000
1!
1I
1J
03
1{!
0|!
0}!
1l!
0m!
1}
0|
1{
1z
0y
1w
0R
0Q
0P
1N
1~
0}
1|
0z
1S
1R
1Q
0~
0S
#840000
0!
0I
0J
13
#845000
1!
1I
1J
03
1}!
1m!
1y
0w
1P
0N
1z
0R
0Q
1S
#850000
0!
0I
0J
13
#855000
1!
1I
1J
03
1|!
0}!
1k!
0l!
0m!
0{
0z
0y
1w
1T
0S
1R
1Q
0P
1N
1}
0|
1{
1z
1U
0T
1S
0Q
1~
0}
1|
0U
0~
#860000
0!
0I
0J
13
#865000
1!
1I
1J
03
1}!
1m!
1y
0w
1P
0N
0{
0z
1Q
1}
0|
1~
#870000
0!
0I
0J
13
#875000
1!
1I
1J
03
1z!
0{!
0|!
0}!
1l!
0m!
0!!
0~
0}
1|
1{
1z
0y
1w
0R
0Q
0P
1N
1#!
0"!
1!!
1~
0|
0z
1T
0S
1R
1Q
1$!
0#!
1"!
1U
0T
1S
0$!
0U
#880000
0!
0I
0J
13
#885000
1!
1I
1J
03
1}!
1m!
1y
0w
1P
0N
1z
0R
0Q
1T
0S
1U
#890000
0!
0I
0J
13
#895000
1!
1I
1J
03
1|!
0}!
1j!
0k!
0l!
0m!
0{
0z
0y
1w
0V
0U
0T
1S
1R
1Q
0P
1N
1|
1{
1z
1X
0W
1V
1U
0S
0Q
0|
1Y
0X
1W
0Y
#900000
0!
0I
0J
13
#905000
1!
1I
1J
03
1}!
1m!
1y
0w
1P
0N
0{
0z
1Q
1|
#910000
0!
0I
0J
13
#915000
1!
1I
1J
03
1{!
0|!
0}!
1l!
0m!
1}
0|
1{
1z
0y
1w
0R
0Q
0P
1N
0!!
0~
0}
1|
0z
1S
1R
1Q
1#!
0"!
1!!
1~
0S
1$!
0#!
1"!
0$!
#920000
0!
0I
0J
13
#925000
1!
1I
1J
03
1}!
1m!
1y
0w
1P
0N
1z
0R
0Q
1S
#930000
0!
0I
0J
13
#935000
1!
1I
1J
03
1|!
0}!
1k!
0l!
0m!
0{
0z
0y
1w
1T
0S
1R
1Q
0P
1N
1}
0|
1{
1z
0V
0U
0T
1S
0Q
0!!
0~
0}
1|
1X
0W
1V
1U
1#!
0"!
1!!
1~
1Y
0X
1W
1$!
0#!
1"!
0Y
0$!
#940000
0!
0I
0J
13
#945000
1!
1I
1J
03
1}!
1m!
1y
0w
1P
0N
0{
0z
1Q
1}
0|
0!!
0~
1#!
0"!
1$!
#950000
0!
0I
0J
13
