doubleSeven/simulation/qsim/doubleSeven.msim.vcd
$comment
	File created using the following command:
		vcd file doubleSeven.msim.vcd -direction
$end
$date
	Tue Oct 31 18:50:03 2017
$end
$version
	ModelSim Version 10.1d
$end
$timescale
	1ps
$end
$scope module counter_debounce_vlg_vec_tst $end
$var reg 1 ! clk $end
$var reg 1 " CLR $end
$var reg 1 # In_put $end
$var wire 1 $ Carry $end
$var wire 1 % output2 [6] $end
$var wire 1 & output2 [5] $end
$var wire 1 ' output2 [4] $end
$var wire 1 ( output2 [3] $end
$var wire 1 ) output2 [2] $end
$var wire 1 * output2 [1] $end
$var wire 1 + output2 [0] $end
$var wire 1 , output3 [6] $end
$var wire 1 - output3 [5] $end
$var wire 1 . output3 [4] $end
$var wire 1 / output3 [3] $end
$var wire 1 0 output3 [2] $end
$var wire 1 1 output3 [1] $end
$var wire 1 2 output3 [0] $end
$var wire 1 3 sampler $end
$scope module i1 $end
$var wire 1 4 gnd $end
$var wire 1 5 vcc $end
$var wire 1 6 unknown $end
$var tri1 1 7 devclrn $end
$var tri1 1 8 devpor $end
$var tri1 1 9 devoe $end
$var wire 1 : Carry~output_o $end
$var wire 1 ; output2[0]~output_o $end
$var wire 1 < output2[1]~output_o $end
$var wire 1 = output2[2]~output_o $end
$var wire 1 > output2[3]~output_o $end
$var wire 1 ? output2[4]~output_o $end
$var wire 1 @ output2[5]~output_o $end
$var wire 1 A output2[6]~output_o $end
$var wire 1 B output3[0]~output_o $end
$var wire 1 C output3[1]~output_o $end
$var wire 1 D output3[2]~output_o $end
$var wire 1 E output3[3]~output_o $end
$var wire 1 F output3[4]~output_o $end
$var wire 1 G output3[5]~output_o $end
$var wire 1 H output3[6]~output_o $end
$var wire 1 I clk~input_o $end
$var wire 1 J clk~inputclkctrl_outclk $end
$var wire 1 K CLR~input_o $end
$var wire 1 L U2|inff[1]~feeder_combout $end
$var wire 1 M U2|count~0_combout $end
$var wire 1 N U2|count~1_combout $end
$var wire 1 O U2|keepResult~0_combout $end
$var wire 1 P U2|keepResult~1_combout $end
$var wire 1 Q U2|keepResult~q $end
$var wire 1 R In_put~input_o $end
$var wire 1 S U1|count~0_combout $end
$var wire 1 T U1|count~1_combout $end
$var wire 1 U U1|keepResult~0_combout $end
$var wire 1 V U1|keepResult~1_combout $end
$var wire 1 W U1|keepResult~q $end
$var wire 1 X U1|keepResult~clkctrl_outclk $end
$var wire 1 Y U0|tmp[0]~4_combout $end
$var wire 1 Z U0|tmp[3]~0_combout $end
$var wire 1 [ U0|tmp[1]~1_combout $end
$var wire 1 \ U0|tmp[2]~2_combout $end
$var wire 1 ] U0|tmp[3]~3_combout $end
$var wire 1 ^ U0|Equal0~0_combout $end
$var wire 1 _ U0|C~1_combout $end
$var wire 1 ` U0|C~0_combout $end
$var wire 1 a U0|C~_emulated_q $end
$var wire 1 b U0|C~2_combout $end
$var wire 1 c U3|Mux6~0_combout $end
$var wire 1 d U3|Mux5~0_combout $end
$var wire 1 e U3|Mux4~0_combout $end
$var wire 1 f U3|Mux3~0_combout $end
$var wire 1 g U3|Mux2~0_combout $end
$var wire 1 h U3|Mux1~0_combout $end
$var wire 1 i U3|Mux0~0_combout $end
$var wire 1 j U0|C2[0]~0_combout $end
$var wire 1 k U0|Equal0~0clkctrl_outclk $end
$var wire 1 l U0|Add0~0_combout $end
$var wire 1 m U0|Add0~1_combout $end
$var wire 1 n U0|Add0~2_combout $end
$var wire 1 o U4|Mux6~0_combout $end
$var wire 1 p U4|Mux5~0_combout $end
$var wire 1 q U4|Mux4~0_combout $end
$var wire 1 r U4|Mux3~0_combout $end
$var wire 1 s U4|Mux2~0_combout $end
$var wire 1 t U4|Mux1~0_combout $end
$var wire 1 u U4|Mux0~0_combout $end
$var wire 1 v U1|count [1] $end
$var wire 1 w U1|count [0] $end
$var wire 1 x U2|count [1] $end
$var wire 1 y U2|count [0] $end
$var wire 1 z U1|inff [1] $end
$var wire 1 { U1|inff [0] $end
$var wire 1 | U2|inff [1] $end
$var wire 1 } U2|inff [0] $end
$var wire 1 ~ U0|C2 [3] $end
$var wire 1 !! U0|C2 [2] $end
$var wire 1 "! U0|C2 [1] $end
$var wire 1 #! U0|C2 [0] $end
$var wire 1 $! U0|tmp [3] $end
$var wire 1 %! U0|tmp [2] $end
$var wire 1 &! U0|tmp [1] $end
$var wire 1 '! U0|tmp [0] $end
$upscope $end
$upscope $end
$enddefinitions $end
#0
$dumpvars
0!
1"
0#
x$
0+
0*
0)
0(
0'
0&
1%
x2
x1
x0
x/
x.
x-
x,
x3
04
15
x6
17
18
19
x:
0;
0<
0=
0>
0?
0@
1A
xB
xC
xD
xE
xF
xG
xH
0I
0J
1K
0L
1M
0N
0O
0P
0Q
0R
1S
0T
0U
0V
0W
0X
1Y
0Z
0[
0\
0]
0^
x_
0`
0a
xb
0c
0d
0e
0f
0g
0h
0i
xj
0k
xl
xm
xn
xo
xp
xq
xr
xs
xt
xu
0w
0v
0y
0x
0{
0z
0}
0|
z#!
x"!
x!!
x~
0'!
0&!
0%!
0$!
$end
#5000
1!
1I
1J
03
1w
1y
1}
1T
0S
0M
1L
#10000
0!
0I
0J
13
#15000
1!
1I
1J
03
1v
0w
0y
1|
1S
1M
#20000
0!
0I
0J
13
#25000
1!
1I
1J
03
1w
1y
1U
1N
0M
1V
#30000
0!
0I
0J
13
#35000
1!
1I
1J
03
1W
1x
0y
1X
1M
#40000
0!
0I
0J
13
#45000
1!
1I
1J
03
1y
1O
#50000
1#
0!
1R
0I
0J
13
#55000
1!
1I
1J
03
1{
0U
0T
0S
#60000
0!
0I
0J
13
#65000
1!
1I
1J
03
0v
0w
1z
1S
#70000
0!
0I
0J
13
#75000
1!
1I
1J
03
1w
1T
0S
#80000
0!
0I
0J
13
#85000
1!
1I
1J
03
1v
0w
1S
#90000
0!
0I
0J
13
#95000
1!
1I
1J
03
1w
1U
0V
#100000
0#
0!
0R
0I
0J
13
#105000
1!
1I
1J
03
0W
0{
0X
0U
0T
0S
1'!
xa
1[
0Y
1h
1g
1f
1c
1@
1?
1>
1;
1&
1'
1(
1+
#110000
0!
0I
0J
13
#115000
1!
1I
1J
03
0v
0w
0z
1S
#120000
0!
0I
0J
13
#125000
1!
1I
1J
03
1w
1T
0S
#130000
0!
0I
0J
13
#135000
1!
1I
1J
03
1v
0w
1S
#140000
0!
0I
0J
13
#145000
1!
1I
1J
03
1w
1U
1V
#150000
1#
0!
1R
0I
0J
13
#155000
1!
1I
1J
03
1W
1{
1X
0U
0T
0S
#160000
0!
0I
0J
13
#165000
1!
1I
1J
03
0v
0w
1z
1S
#170000
0!
0I
0J
13
#175000
1!
1I
1J
03
1w
1T
0S
#180000
0!
0I
0J
13
#185000
1!
1I
1J
03
1v
0w
1S
#190000
0!
0I
0J
13
#195000
1!
1I
1J
03
1w
1U
0V
#200000
0#
0!
0R
0I
0J
13
#205000
1!
1I
1J
03
0W
0{
0X
0U
0T
0S
1&!
0'!
1i
1Y
0g
0f
1e
0c
0A
0?
0>
1=
0;
0%
0'
0(
1)
0+
#210000
0!
0I
0J
13
#215000
1!
1I
1J
03
0v
0w
0z
1S
#220000
0!
0I
0J
13
#225000
1!
1I
1J
03
1w
1T
0S
#230000
0!
0I
0J
13
#235000
1!
1I
1J
03
1v
0w
1S
#240000
0!
0I
0J
13
#245000
1!
1I
1J
03
1w
1U
1V
#250000
1#
0!
1R
0I
0J
13
#255000
1!
1I
1J
03
1W
1{
1X
0U
0T
0S
#260000
0!
0I
0J
13
#265000
1!
1I
1J
03
0v
0w
1z
1S
#270000
0!
0I
0J
13
#275000
1!
1I
1J
03
1w
1T
0S
#280000
0!
0I
0J
13
#285000
1!
1I
1J
03
1v
0w
1S
#290000
0!
0I
0J
13
#295000
1!
1I
1J
03
1w
1U
0V
#300000
0#
0!
0R
0I
0J
13
#305000
1!
1I
1J
03
0W
0{
0X
0U
0T
0S
1'!
1\
0[
0Y
1g
0e
1?
0=
1'
0)
#310000
0!
0I
0J
13
#315000
1!
1I
1J
03
0v
0w
0z
1S
#320000
0!
0I
0J
13
#325000
1!
1I
1J
03
1w
1T
0S
#330000
0!
0I
0J
13
#335000
1!
1I
1J
03
1v
0w
1S
#340000
0!
0I
0J
13
#345000
1!
1I
1J
03
1w
1U
1V
#350000
1#
0!
1R
0I
0J
13
#355000
1!
1I
1J
03
1W
1{
1X
0U
0T
0S
#360000
0!
0I
0J
13
#365000
1!
1I
1J
03
0v
0w
1z
1S
#370000
0!
0I
0J
13
#375000
1!
1I
1J
03
1w
1T
0S
#380000
0!
0I
0J
13
#385000
1!
1I
1J
03
1v
0w
1S
#390000
0!
0I
0J
13
#395000
1!
1I
1J
03
1w
1U
0V
#400000
0#
0!
0R
0I
0J
13
#405000
1!
1I
1J
03
0W
0{
0X
0U
0T
0S
0&!
1%!
0'!
1Y
0h
1f
1c
0@
1>
1;
0&
1(
1+
#410000
0!
0I
0J
13
#415000
1!
1I
1J
03
0v
0w
0z
1S
#420000
0!
0I
0J
13
#425000
1!
1I
1J
03
1w
1T
0S
#430000
0!
0I
0J
13
#435000
1!
1I
1J
03
1v
0w
1S
#440000
0!
0I
0J
13
#445000
1!
1I
1J
03
1w
1U
1V
#450000
1#
0!
1R
0I
0J
13
#455000
1!
1I
1J
03
1W
1{
1X
0U
0T
0S
#460000
0!
0I
0J
13
#465000
1!
1I
1J
03
0v
0w
1z
1S
#470000
0!
0I
0J
13
#475000
1!
1I
1J
03
1w
1T
0S
#480000
0!
0I
0J
13
#485000
1!
1I
1J
03
1v
0w
1S
#490000
0!
0I
0J
13
#495000
1!
1I
1J
03
1w
1U
0V
#500000
0#
0!
0R
0I
0J
13
#505000
1!
1I
1J
03
0W
0{
0X
0U
0T
0S
1'!
1[
0Y
0f
1d
0c
0>
1<
0;
0(
1*
0+
#510000
0!
0I
0J
13
#515000
1!
1I
1J
03
0v
0w
0z
1S
#520000
0!
0I
0J
13
#525000
1!
1I
1J
03
1w
1T
0S
#530000
0!
0I
0J
13
#535000
1!
1I
1J
03
1v
0w
1S
#540000
0!
0I
0J
13
#545000
1!
1I
1J
03
1w
1U
1V
#550000
1#
0!
1R
0I
0J
13
#555000
1!
1I
1J
03
1W
1{
1X
0U
0T
0S
#560000
0!
0I
0J
13
#565000
1!
1I
1J
03
0v
0w
1z
1S
#570000
0!
0I
0J
13
#575000
1!
1I
1J
03
1w
1T
0S
#580000
0!
0I
0J
13
#585000
1!
1I
1J
03
1v
0w
1S
#590000
0!
0I
0J
13
#595000
1!
1I
1J
03
1w
1U
0V
#600000
0#
0!
0R
0I
0J
13
#605000
1!
1I
1J
03
0W
0{
0X
0U
0T
0S
1&!
0'!
1Y
0g
0?
0'
#610000
0!
0I
0J
13
#615000
1!
1I
1J
03
0v
0w
0z
1S
#620000
0!
0I
0J
13
#625000
1!
1I
1J
03
1w
1T
0S
#630000
0!
0I
0J
13
#635000
1!
1I
1J
03
1v
0w
1S
#640000
0!
0I
0J
13
#645000
1!
1I
1J
03
1w
1U
1V
#650000
1#
0!
1R
0I
0J
13
#655000
1!
1I
1J
03
1W
1{
1X
0U
0T
0S
#660000
0!
0I
0J
13
#665000
1!
1I
1J
03
0v
0w
1z
1S
#670000
0!
0I
0J
13
#675000
1!
1I
1J
03
1w
1T
0S
#680000
0!
0I
0J
13
#685000
1!
1I
1J
03
1v
0w
1S
#690000
0!
0I
0J
13
#695000
1!
1I
1J
03
1w
1U
0V
#700000
0#
0!
0R
0I
0J
13
#705000
1!
1I
1J
03
0W
0{
0X
0U
0T
0S
1'!
0i
1]
0\
0[
0Y
1h
1g
1f
0d
1A
1@
1?
1>
0<
1%
1&
1'
1(
0*
#710000
0!
0I
0J
13
#715000
1!
1I
1J
03
0v
0w
0z
1S
#720000
0!
0I
0J
13
#725000
1!
1I
1J
03
1w
1T
0S
#730000
0!
0I
0J
13
#735000
1!
1I
1J
03
1v
0w
1S
#740000
0!
0I
0J
13
#745000
1!
1I
1J
03
1w
1U
1V
#750000
1#
0!
1R
0I
0J
13
#755000
1!
1I
1J
03
1W
1{
1X
0U
0T
0S
#760000
0!
0I
0J
13
#765000
1!
1I
1J
03
0v
0w
1z
1S
#770000
0!
0I
0J
13
#775000
1!
1I
1J
03
1w
1T
0S
#780000
0!
0I
0J
13
#785000
1!
1I
1J
03
1v
0w
1S
#790000
0!
0I
0J
13
#795000
1!
1I
1J
03
1w
1U
0V
#800000
0#
0!
0R
0I
0J
13
#805000
1!
1I
1J
03
0W
0{
0X
0U
0T
0S
0&!
0%!
1$!
0'!
1i
1Y
0h
0g
0f
0A
0@
0?
0>
0%
0&
0'
0(
#810000
0!
0I
0J
13
#815000
1!
1I
1J
03
0v
0w
0z
1S
#820000
0!
0I
0J
13
#825000
1!
1I
1J
03
1w
1T
0S
#830000
0!
0I
0J
13
#835000
1!
1I
1J
03
1v
0w
1S
#840000
0!
0I
0J
13
#845000
1!
1I
1J
03
1w
1U
1V
#850000
1#
0!
1R
0I
0J
13
#855000
1!
1I
1J
03
1W
1{
1X
0U
0T
0S
#860000
0!
0I
0J
13
#865000
1!
1I
1J
03
0v
0w
1z
1S
#870000
0!
0I
0J
13
#875000
1!
1I
1J
03
1w
1T
0S
#880000
0!
0I
0J
13
#885000
1!
1I
1J
03
1v
0w
1S
#890000
0!
0I
0J
13
#895000
1!
1I
1J
03
1w
1U
0V
#900000
0#
0!
0R
0I
0J
13
#905000
1!
1I
1J
03
0W
0{
0X
0U
0T
0S
1'!
1[
0Y
1g
1?
1'
#910000
0!
0I
0J
13
#915000
1!
1I
1J
03
0v
0w
0z
1S
#920000
0!
0I
0J
13
#925000
1!
1I
1J
03
1w
1T
0S
#930000
0!
0I
0J
13
#935000
1!
1I
1J
03
1v
0w
1S
#940000
0!
0I
0J
13
#945000
1!
1I
1J
03
1w
1U
1V
#950000
1#
0!
1R
0I
0J
13
#955000
1!
1I
1J
03
1W
1{
1X
0U
0T
0S
#960000
0!
0I
0J
13
#965000
1!
1I
1J
03
0v
0w
1z
1S
#970000
0!
0I
0J
13
#975000
1!
1I
1J
03
1w
1T
0S
#980000
0!
0I
0J
13
#985000
1!
1I
1J
03
1v
0w
1S
#990000
0!
0I
0J
13
#995000
1!
1I
1J
03
1w
1U
0V
